{
  "droplets": [
    {"id": 1, "name": "drop-1", "created_at": "2024-01-01T00:00:00Z", "tags": ["env=dev"]},
    {"id": 2, "name": "drop-2", "created_at": "2024-01-02T00:00:00Z", "tags": []}
  ],
  "links": {"pages": {"next": "http://do-fixture-host-invalid/v2/droplets?page=2", "last": "http://do-fixture-host-invalid/v2/droplets?page=2"}},
  "meta": {"total": 3}
}
